{
  "-K1IzVtfHJ30xfcZR_R-" : {
    "annotator" : {
      "age" : "2",
      "country" : "Greece",
      "education" : "3"
    },
    "csvFile" : "2015-10-23T09-15-28.595ZGPS37.976_23.777.csv",
    "deviceId" : "20a80da5890bbeb6",
    "geo" : {
      "lat" : 37.97617261888282,
      "lng" : 23.776731491088867
    },
    "soundscapeQuality" : 3,
    "tags" : [ "vehicles", "raining" ]
  },
  "-K1J61ORq4VFZg1-FwMY" : {
    "annotator" : {
      "age" : "2",
      "country" : "Greece",
      "education" : "3"
    },
    "csvFile" : "2015-10-23T09-49-08.173ZGPS37.976_23.777.csv",
    "deviceId" : "20a80da5890bbeb6",
    "geo" : {
      "lat" : 37.97617261888282,
      "lng" : 23.776731491088867
    },
    "soundscapeQuality" : 4,
    "tags" : [ "rain" ]
  },
  "-K1J6yoWQqW1uRf-OPXd" : {
    "annotator" : {
      "age" : "2",
      "country" : "Greece",
      "education" : "3"
    },
    "csvFile" : "2015-10-23T09-54-04.554ZGPS37.976_23.769.csv",
    "deviceId" : "20a80da5890bbeb6",
    "geo" : {
      "lat" : 37.97603307520772,
      "lng" : 23.769119381904602
    },
    "soundscapeQuality" : 3,
    "tags" : [ "vehicles", "rain" ]
  },
  "-K1KbUH3pGSr0d1mwCbe" : {
    "annotator" : {
      "age" : "2",
      "country" : "Greece",
      "education" : "3"
    },
    "csvFile" : "2015-10-23T16-51-25.300ZGPS37.978_23.766.csv",
    "deviceId" : "20a80da5890bbeb6",
    "geo" : {
      "lat" : 37.9777678,
      "lng" : 23.7659987
    },
    "soundscapeQuality" : 3,
    "tags" : [ "vehicles", "rain" ]
  },
  "-K1KdNbTNFmGoVRDnTGE" : {
    "annotator" : {
      "age" : "2",
      "country" : "Greece",
      "education" : "3"
    },
    "csvFile" : "2015-10-23T17-00-05.915ZGPS37.979_23.765.csv",
    "deviceId" : "20a80da5890bbeb6",
    "geo" : {
      "lat" : 37.978877,
      "lng" : 23.76516
    },
    "soundscapeQuality" : 3,
    "tags" : [ "rain" ]
  },
  "-K1KdlIvBPp_gWDHX2GP" : {
    "annotator" : {
      "age" : "2",
      "country" : "Greece",
      "education" : "3"
    },
    "csvFile" : "2015-10-23T17-01-41.688ZGPS37.979_23.765.csv",
    "deviceId" : "20a80da5890bbeb6",
    "geo" : {
      "lat" : 37.9791806,
      "lng" : 23.7650792
    },
    "soundscapeQuality" : 3,
    "tags" : [ "vehicles", "voice (adults)", "rain" ]
  },
  "-K1KeDN4YzVo-pT7ppvS" : {
    "annotator" : {
      "age" : "2",
      "country" : "Greece",
      "education" : "3"
    },
    "csvFile" : "2015-10-23T17-03-33.361ZGPS37.979_23.765.csv",
    "deviceId" : "20a80da5890bbeb6",
    "geo" : {
      "lat" : 37.9791806,
      "lng" : 23.7650792
    },
    "soundscapeQuality" : 2,
    "tags" : [ "vehicles", "voice (children)", "voice (adults)", "rain" ]
  },
  "-K1KwSLwXoxrJxiv1E6n" : {
    "annotator" : {
      "age" : "2",
      "country" : "Greece",
      "education" : "3"
    },
    "csvFile" : "2015-10-23T18-22-55.271ZGPS37.979_23.764.csv",
    "deviceId" : "20a80da5890bbeb6",
    "geo" : {
      "lat" : 37.9787084,
      "lng" : 23.764437
    },
    "soundscapeQuality" : 3,
    "tags" : [ "voice (adults)", "rain" ]
  },
  "-K1OVioNodDwyiBrTxbN" : {
    "annotator" : {
      "age" : "2",
      "country" : "Greece",
      "education" : "3"
    },
    "csvFile" : "2015-10-24T10-59-52.369ZGPS37.977_23.766.csv",
    "deviceId" : "20a80da5890bbeb6",
    "geo" : {
      "lat" : 37.977265,
      "lng" : 23.7656154
    },
    "soundscapeQuality" : 3,
    "tags" : [ "wind" ]
  },
  "-K1OW4dP8ZYLRgtXlsvo" : {
    "annotator" : {
      "age" : "2",
      "country" : "Greece",
      "education" : "3"
    },
    "csvFile" : "2015-10-24T11-02-01.849ZGPS37.977_23.766.csv",
    "deviceId" : "20a80da5890bbeb6",
    "geo" : {
      "lat" : 37.977265,
      "lng" : 23.7656154
    },
    "soundscapeQuality" : 3,
    "tags" : [ "vehicles", "wind", "walking" ]
  },
  "-K1OWaRAmpTSkeeIyyqa" : {
    "annotator" : {
      "age" : "2",
      "country" : "Greece",
      "education" : "3"
    },
    "csvFile" : "2015-10-24T11-04-03.442ZGPS37.978_23.763.csv",
    "deviceId" : "20a80da5890bbeb6",
    "geo" : {
      "lat" : 37.977869,
      "lng" : 23.7625186
    },
    "soundscapeQuality" : 2,
    "tags" : [ "vehicles", "voice (children)", "voice (adults)", "walking" ]
  },
  "-K1ObiHIC87mOxDPSX6L" : {
    "annotator" : {
      "age" : "2",
      "country" : "Greece",
      "education" : "3"
    },
    "csvFile" : "2015-10-24T11-30-56.177ZGPS37.977_23.762.csv",
    "deviceId" : "20a80da5890bbeb6",
    "geo" : {
      "lat" : 37.9773302,
      "lng" : 23.7620231
    },
    "soundscapeQuality" : 3,
    "tags" : [ "vehicles", "voice (adults)", "walking" ]
  },
  "-K1OcD0lwBDyoXaDkboL" : {
    "annotator" : {
      "age" : "2",
      "country" : "Greece",
      "education" : "3"
    },
    "csvFile" : "2015-10-24T11-33-15.401ZGPS37.979_23.763.csv",
    "deviceId" : "20a80da5890bbeb6",
    "geo" : {
      "lat" : 37.9790014,
      "lng" : 23.7632024
    },
    "soundscapeQuality" : 2,
    "tags" : [ "vehicles", "walking" ]
  },
  "-K1Oca4bOpXWLoLJqC9b" : {
    "annotator" : {
      "age" : "2",
      "country" : "Greece",
      "education" : "3"
    },
    "csvFile" : "2015-10-24T11-34-50.994ZGPS37.980_23.764.csv",
    "deviceId" : "20a80da5890bbeb6",
    "geo" : {
      "lat" : 37.9795001,
      "lng" : 23.7636586
    },
    "soundscapeQuality" : 2,
    "tags" : [ "vehicles" ]
  },
  "-K1YTOpZubBKkQ5UEzX6" : {
    "annotator" : {
      "age" : "2",
      "country" : "Greece",
      "education" : "4"
    },
    "csvFile" : "2015-10-26T09-25-28.402ZGPS37.960_23.721.csv",
    "deviceId" : "33b5bf2a8db11206",
    "geo" : {
      "lat" : 37.9598698,
      "lng" : 23.7205581
    },
    "soundscapeQuality" : 3,
    "tags" : [ "vehicles", "sirens/horns", "voice (adults)", "walking" ]
  },
  "-K1Yg6V8tyqMxRAkQhi9" : {
    "annotator" : {
      "age" : "2",
      "country" : "Greece",
      "education" : "3"
    },
    "csvFile" : "2015-10-26T10-26-44.601ZGPS37.976_23.777.csv",
    "deviceId" : "20a80da5890bbeb6",
    "geo" : {
      "lat" : 37.9762594,
      "lng" : 23.7772991
    },
    "soundscapeQuality" : 3,
    "tags" : [ "vehicles" ]
  },
  "-K1YneC7YO1sPFf047uO" : {
    "annotator" : {
      "age" : "2",
      "country" : "Greece",
      "education" : "4"
    },
    "csvFile" : "2015-10-26T10-59-32.326ZGPS37.964_23.727.csv",
    "deviceId" : "33b5bf2a8db11206",
    "geo" : {
      "lat" : 37.964402,
      "lng" : 23.7267153
    },
    "soundscapeQuality" : 2,
    "tags" : [ "vehicles", "voice (adults)", "walking", "music" ]
  },
  "-K1YqtUwFmGduah1ae0g" : {
    "annotator" : {
      "age" : "2",
      "country" : "Greece",
      "education" : "4"
    },
    "csvFile" : "2015-10-26T11-13-14.568ZGPS37.964_23.725.csv",
    "deviceId" : "33b5bf2a8db11206",
    "geo" : {
      "lat" : 37.9635851,
      "lng" : 23.7254219
    },
    "soundscapeQuality" : 3,
    "tags" : [ "vehicles", "sirens/horns", "birds", "voice (adults)", "walking" ]
  },
  "-K1Zr1B7Om-BAgdsQzTi" : {
    "annotator" : {
      "age" : "2",
      "country" : "Greece",
      "education" : "4"
    },
    "csvFile" : "2015-10-26T15-53-55.569ZGPS38.026_23.813.csv",
    "deviceId" : "33b5bf2a8db11206",
    "geo" : {
      "lat" : 38.0262367,
      "lng" : 23.8132838
    },
    "soundscapeQuality" : 2,
    "tags" : [ "vehicles", "walking" ]
  },
  "-K1cPl-0cfzprlijWFaE" : {
    "annotator" : {
      "age" : "2",
      "country" : "Greece",
      "education" : "3"
    },
    "csvFile" : "2015-10-27T08-28-51.122ZGPS37.977_23.767.csv",
    "deviceId" : "20a80da5890bbeb6",
    "geo" : {
      "lat" : 37.9770208,
      "lng" : 23.7668225
    },
    "soundscapeQuality" : 3,
    "tags" : [ "vehicles", "wind", "voice (children)", "walking" ]
  },
  "-K1cQBLmHRg2dmQeHYCE" : {
    "annotator" : {
      "age" : "2",
      "country" : "Greece",
      "education" : "3"
    },
    "csvFile" : "2015-10-27T08-30-36.037ZGPS37.978_23.768.csv",
    "deviceId" : "20a80da5890bbeb6",
    "geo" : {
      "lat" : 37.9778168,
      "lng" : 23.7676495
    },
    "soundscapeQuality" : 3,
    "tags" : [ "vehicles", "wind", "walking" ]
  },
  "-K1cTvTw8L2oLdrN1b2d" : {
    "annotator" : {
      "age" : "2",
      "country" : "Greece",
      "education" : "3"
    },
    "csvFile" : "2015-10-27T08-47-12.907ZGPS37.979_23.783.csv",
    "deviceId" : "20a80da5890bbeb6",
    "geo" : {
      "lat" : 37.9788364,
      "lng" : 23.7825855
    },
    "soundscapeQuality" : 4,
    "tags" : [ "wind", "voice (adults)" ]
  },
  "-K1d11xjs7KBNRK45AKq" : {
    "annotator" : {
      "age" : "2",
      "country" : "Greece",
      "education" : "3"
    },
    "csvFile" : "2015-10-27T11-19-57.117ZGPS37.978_23.784.csv",
    "deviceId" : "20a80da5890bbeb6",
    "geo" : {
      "lat" : 37.977756,
      "lng" : 23.7840892
    },
    "soundscapeQuality" : 4,
    "tags" : [ "wind" ]
  },
  "-K1d1cHQBMoJdYrXap_8" : {
    "annotator" : {
      "age" : "2",
      "country" : "Greece",
      "education" : "3"
    },
    "csvFile" : "2015-10-27T11-23-17.339ZGPS37.978_23.784.csv",
    "deviceId" : "20a80da5890bbeb6",
    "geo" : {
      "lat" : 37.977756,
      "lng" : 23.7840892
    },
    "soundscapeQuality" : 4,
    "tags" : [ "wind" ]
  },
  "-K1d248Rq_NpjGMffcXP" : {
    "annotator" : {
      "age" : "2",
      "country" : "Greece",
      "education" : "3"
    },
    "csvFile" : "2015-10-27T11-24-54.830ZGPS37.978_23.780.csv",
    "deviceId" : "20a80da5890bbeb6",
    "geo" : {
      "lat" : 37.9779884,
      "lng" : 23.7803398
    },
    "soundscapeQuality" : 4,
    "tags" : [ "wind", "trees" ]
  },
  "-K1d2lkuZUqE4SfCAUaJ" : {
    "annotator" : {
      "age" : "2",
      "country" : "Greece",
      "education" : "3"
    },
    "csvFile" : "2015-10-27T11-28-22.405ZGPS37.978_23.781.csv",
    "deviceId" : "20a80da5890bbeb6",
    "geo" : {
      "lat" : 37.9777998,
      "lng" : 23.7806378
    },
    "soundscapeQuality" : 4,
    "tags" : [ "wind", "birds" ]
  },
  "-K1d35ycbts6R52nMS1N" : {
    "annotator" : {
      "age" : "2",
      "country" : "Greece",
      "education" : "3"
    },
    "csvFile" : "2015-10-27T11-29-36.396ZGPS37.978_23.781.csv",
    "deviceId" : "20a80da5890bbeb6",
    "geo" : {
      "lat" : 37.9777998,
      "lng" : 23.7806378
    },
    "soundscapeQuality" : 4,
    "tags" : [ "wind", "birds" ]
  },
  "-K1d3Ntdxrz78s5fWcJP" : {
    "annotator" : {
      "age" : "2",
      "country" : "Greece",
      "education" : "3"
    },
    "csvFile" : "2015-10-27T11-31-00.492ZGPS37.978_23.781.csv",
    "deviceId" : "20a80da5890bbeb6",
    "geo" : {
      "lat" : 37.9777998,
      "lng" : 23.7806378
    },
    "soundscapeQuality" : 4,
    "tags" : [ "wind", "birds", "voice (adults)", "walking" ]
  },
  "-K1d40lX6rGvjuXTYAmX" : {
    "annotator" : {
      "age" : "2",
      "country" : "Greece",
      "education" : "3"
    },
    "csvFile" : "2015-10-27T11-33-10.145ZGPS37.978_23.778.csv",
    "deviceId" : "20a80da5890bbeb6",
    "geo" : {
      "lat" : 37.9775627,
      "lng" : 23.7775908
    },
    "soundscapeQuality" : 4,
    "tags" : [ "wind", "voice (adults)", "trees" ]
  },
  "-K1d4avCmK6-z7ZcyhJV" : {
    "annotator" : {
      "age" : "2",
      "country" : "Greece",
      "education" : "3"
    },
    "csvFile" : "2015-10-27T11-36-09.364ZGPS37.978_23.781.csv",
    "deviceId" : "20a80da5890bbeb6",
    "geo" : {
      "lat" : 37.9784077,
      "lng" : 23.7807326
    },
    "soundscapeQuality" : 4,
    "tags" : [ "wind", "trees" ]
  },
  "-K1d5MCiQ6lJTBsJSC3g" : {
    "annotator" : {
      "age" : "2",
      "country" : "Greece",
      "education" : "3"
    },
    "csvFile" : "2015-10-27T11-39-17.614ZGPS37.975_23.779.csv",
    "deviceId" : "20a80da5890bbeb6",
    "geo" : {
      "lat" : 37.975191578937206,
      "lng" : 23.778963088989258
    },
    "soundscapeQuality" : 3,
    "tags" : [ "vehicles", "wind", "birds", "voice (adults)", "walking" ]
  },
  "-K1d7EA7rArDwWI7m0k3" : {
    "annotator" : {
      "age" : "2",
      "country" : "Greece",
      "education" : "3"
    },
    "csvFile" : "2015-10-27T11-47-31.945ZGPS37.979_23.766.csv",
    "deviceId" : "20a80da5890bbeb6",
    "geo" : {
      "lat" : 37.9788403,
      "lng" : 23.7663724
    },
    "soundscapeQuality" : 2,
    "tags" : [ "vehicles", "wind" ]
  },
  "-K1d7etEJRvCPdRkFoEa" : {
    "annotator" : {
      "age" : "2",
      "country" : "Greece",
      "education" : "3"
    },
    "csvFile" : "2015-10-27T11-49-28.269ZGPS37.979_23.765.csv",
    "deviceId" : "20a80da5890bbeb6",
    "geo" : {
      "lat" : 37.9790802,
      "lng" : 23.7652452
    },
    "soundscapeQuality" : 3,
    "tags" : [ "wind", "walking", "trees" ]
  },
  "-K1d87dk_9Q39GWo0o8v" : {
    "annotator" : {
      "age" : "2",
      "country" : "Greece",
      "education" : "3"
    },
    "csvFile" : "2015-10-27T11-51-46.602ZGPS37.978_23.766.csv",
    "deviceId" : "20a80da5890bbeb6",
    "geo" : {
      "lat" : 37.978286884528536,
      "lng" : 23.766067028045654
    },
    "soundscapeQuality" : 3,
    "tags" : [ "vehicles", "birds" ]
  },
  "-K1d8XytPrrISUZBlQL0" : {
    "annotator" : {
      "age" : "2",
      "country" : "Greece",
      "education" : "3"
    },
    "csvFile" : "2015-10-27T11-52-49.082ZGPS37.978_23.766.csv",
    "deviceId" : "20a80da5890bbeb6",
    "geo" : {
      "lat" : 37.978286884528536,
      "lng" : 23.766067028045654
    },
    "soundscapeQuality" : 4,
    "tags" : [ "birds" ]
  },
  "-K1dMyP-8cSuvGCN5nvj" : {
    "annotator" : {
      "age" : "2",
      "country" : "Greece",
      "education" : "3"
    },
    "csvFile" : "2015-10-27T12-56-06.917ZGPS37.980_23.764.csv",
    "deviceId" : "845cd8a2ede5e5a1",
    "geo" : {
      "lat" : 37.98020659480244,
      "lng" : 23.764096945524216
    },
    "soundscapeQuality" : 2,
    "tags" : [ "vehicles" ]
  },
  "-K1dkGLbW_SdfEu2v4Ae" : {
    "annotator" : {
      "age" : "2",
      "country" : "Greece",
      "education" : "3"
    },
    "csvFile" : "2015-10-27T14-42-41.140ZGPS37.980_23.771.csv",
    "deviceId" : "845cd8a2ede5e5a1",
    "geo" : {
      "lat" : 37.980154836550355,
      "lng" : 23.770710015669465
    },
    "soundscapeQuality" : 3,
    "tags" : [ "vehicles" ]
  },
  "-K1foBsF7OyfDX4Ryj-1" : {
    "annotator" : {
      "age" : "2",
      "country" : "Greece",
      "education" : "3"
    },
    "csvFile" : "2015-10-28T00-18-14.026ZGPS37.974_23.766.csv",
    "deviceId" : "22dcab7692e1d0e6",
    "geo" : {
      "lat" : 37.9741786,
      "lng" : 23.7659176
    },
    "soundscapeQuality" : 3,
    "tags" : [ "voice (adults)" ]
  },
  "-K1fp2uo6lh29cGakpY5" : {
    "annotator" : {
      "age" : "2",
      "country" : "Greece",
      "education" : "2"
    },
    "csvFile" : "2015-10-28T00-22-03.621ZGPS37.981_23.768.csv",
    "deviceId" : "22dcab7692e1d0e6",
    "geo" : {
      "lat" : 37.981466625374274,
      "lng" : 23.76795530319214
    },
    "soundscapeQuality" : 3,
    "tags" : [ "vehicles" ]
  },
  "-K1j7sE6X-y96GFfX4Uu" : {
    "annotator" : {
      "age" : "2",
      "country" : "Greece",
      "education" : "2"
    },
    "csvFile" : "2015-10-28T15-48-10.285ZGPS38.058_23.768.csv",
    "deviceId" : "22dcab7692e1d0e6",
    "geo" : {
      "lat" : 38.0580056,
      "lng" : 23.7678619
    },
    "soundscapeQuality" : 3,
    "tags" : [ "machinery" ]
  },
  "-K1jkuvS61lECoXVyqZv" : {
    "annotator" : {
      "age" : "2",
      "country" : "Greece",
      "education" : "2"
    },
    "csvFile" : "2015-10-28T18-43-17.220ZGPS38.046_23.766.csv",
    "deviceId" : "22dcab7692e1d0e6",
    "geo" : {
      "lat" : 38.04638437157311,
      "lng" : 23.76613140106201
    },
    "soundscapeQuality" : 3,
    "tags" : [ "machinery" ]
  },
  "-K1jlTOQevMDATclmjsg" : {
    "annotator" : {
      "age" : "2",
      "country" : "Greece",
      "education" : "3"
    },
    "csvFile" : "2015-10-28T18-44-54.490ZGPS37.977_23.766.csv",
    "deviceId" : "20a80da5890bbeb6",
    "geo" : {
      "lat" : 37.97658701974819,
      "lng" : 23.765852451324463
    },
    "soundscapeQuality" : 3,
    "tags" : [ "vehicles" ]
  },
  "-K1jltrLb-pgR6anlNpy" : {
    "annotator" : {
      "age" : "2",
      "country" : "Greece",
      "education" : "3"
    },
    "csvFile" : "2015-10-28T18-47-38.764ZGPS37.979_23.766.csv",
    "deviceId" : "20a80da5890bbeb6",
    "geo" : {
      "lat" : 37.9786706,
      "lng" : 23.7659831
    },
    "soundscapeQuality" : 3
  },
  "-K1jnTwpb8OkNrrYWDxV" : {
    "annotator" : {
      "age" : "2",
      "country" : "Greece",
      "education" : "3"
    },
    "csvFile" : "2015-10-28T18-54-18.427ZGPS37.976_23.769.csv",
    "deviceId" : "20a80da5890bbeb6",
    "geo" : {
      "lat" : 37.97617261888282,
      "lng" : 23.769221305847168
    },
    "soundscapeQuality" : 3
  },
  "-K1kewYhZnUsXXZHFZtl" : {
    "annotator" : {
      "age" : "2",
      "country" : "Greece",
      "education" : "3"
    },
    "csvFile" : "2015-10-28T22-56-31.343ZGPS37.977_23.710.csv",
    "deviceId" : "18b988415c9464ba",
    "geo" : {
      "lat" : 37.9769221,
      "lng" : 23.7103362
    },
    "soundscapeQuality" : 3,
    "tags" : [ "vehicles", "wind" ]
  },
  "-K1m7vv1uhvibErMpUPB" : {
    "annotator" : {
      "age" : "2",
      "country" : "Greece",
      "education" : "3"
    },
    "csvFile" : "2015-10-29T05-46-40.445ZGPS38.053_23.752.csv",
    "deviceId" : "22dcab7692e1d0e6",
    "geo" : {
      "lat" : 38.052505361712555,
      "lng" : 23.75150453220158
    },
    "soundscapeQuality" : 4,
    "tags" : [ "machinery" ]
  },
  "-K1mB1J9coVPZWEY1KtU" : {
    "annotator" : {
      "age" : "2",
      "country" : "Greece",
      "education" : "3"
    },
    "csvFile" : "2015-10-29T06-00-56.904ZGPS38.042_23.753.csv",
    "deviceId" : "22dcab7692e1d0e6",
    "geo" : {
      "lat" : 38.0422977207932,
      "lng" : 23.75316511982419
    },
    "soundscapeQuality" : 4,
    "tags" : [ "machinery" ]
  },
  "-K1mC7B2QbXlQc0mEr3R" : {
    "annotator" : {
      "age" : "2",
      "country" : "Greece",
      "education" : "3"
    },
    "csvFile" : "2015-10-29T06-05-34.801ZGPS38.042_23.755.csv",
    "deviceId" : "22dcab7692e1d0e6",
    "geo" : {
      "lat" : 38.04153359373277,
      "lng" : 23.75489526275487
    },
    "soundscapeQuality" : 3,
    "tags" : [ "subway/trains" ]
  },
  "-K1mGf4YPSHLWTNmhe-M" : {
    "annotator" : {
      "age" : "2",
      "country" : "Greece",
      "education" : "3"
    },
    "csvFile" : "2015-10-29T06-25-26.715ZGPS38.000_23.723.csv",
    "deviceId" : "22dcab7692e1d0e6",
    "geo" : {
      "lat" : 37.99958104311547,
      "lng" : 23.722789735711554
    },
    "soundscapeQuality" : 4,
    "tags" : [ "subway/trains" ]
  },
  "-K1mKj-d61bh4teEouQr" : {
    "annotator" : {
      "age" : "2",
      "country" : "Greece",
      "education" : "3"
    },
    "csvFile" : "2015-10-29T06-43-15.690ZGPS37.975_23.736.csv",
    "deviceId" : "22dcab7692e1d0e6",
    "geo" : {
      "lat" : 37.97537432400703,
      "lng" : 23.73566701591244
    },
    "soundscapeQuality" : 4,
    "tags" : [ "machinery" ]
  },
  "-K1mLTD6eSO6fPabhJPl" : {
    "annotator" : {
      "age" : "2",
      "country" : "Greece",
      "education" : "3"
    },
    "csvFile" : "2015-10-29T06-46-30.321ZGPS37.974_23.734.csv",
    "deviceId" : "22dcab7692e1d0e6",
    "geo" : {
      "lat" : 37.97368655429081,
      "lng" : 23.73387663570611
    },
    "soundscapeQuality" : 4,
    "tags" : [ "machinery" ]
  },
  "-K1nD7L4obS4bszeT6oH" : {
    "annotator" : {
      "age" : "2",
      "country" : "Greece",
      "education" : "4"
    },
    "csvFile" : "2015-10-29T10-49-29.102ZGPS37.963_23.724.csv",
    "deviceId" : "33b5bf2a8db11206",
    "geo" : {
      "lat" : 37.9630211,
      "lng" : 23.7243068
    },
    "soundscapeQuality" : 3,
    "tags" : [ "vehicles", "voice (adults)", "walking" ]
  },
  "-K1nHFK5BPrvW7IwLvwq" : {
    "annotator" : {
      "age" : "2",
      "country" : "Greece",
      "education" : "4"
    },
    "csvFile" : "2015-10-29T11-07-26.826ZGPS37.965_23.725.csv",
    "deviceId" : "33b5bf2a8db11206",
    "geo" : {
      "lat" : 37.964578,
      "lng" : 23.7245056
    },
    "soundscapeQuality" : 4,
    "tags" : [ "vehicles", "voice (adults)", "walking", "shouting" ]
  },
  "-K1nyoTz3ixu4OmJCRS9" : {
    "annotator" : {
      "age" : "2",
      "country" : "Greece",
      "education" : "3"
    },
    "csvFile" : "2015-10-29T14-21-48.243ZGPS37.982_23.791.csv",
    "deviceId" : "e84ffedd6f34521c",
    "geo" : {
      "lat" : 37.981714622876154,
      "lng" : 23.79149891865381
    },
    "soundscapeQuality" : 4,
    "tags" : [ "vehicles", "silence" ]
  },
  "-K1o-XQq-L2VIiQgfIr2" : {
    "annotator" : {
      "age" : "2",
      "country" : "Greece",
      "education" : "3"
    },
    "csvFile" : "2015-10-29T14-26-47.991ZGPS37.982_23.791.csv",
    "deviceId" : "e84ffedd6f34521c",
    "geo" : {
      "lat" : 37.981714622876154,
      "lng" : 23.79149891865381
    },
    "soundscapeQuality" : 3,
    "tags" : [ "vehicles", "wind" ]
  },
  "-K1o0XCF5Bch_B0QdlS9" : {
    "annotator" : {
      "age" : "2",
      "country" : "Greece",
      "education" : "3"
    },
    "csvFile" : "2015-10-29T14-34-09.035ZGPS37.981_23.796.csv",
    "deviceId" : "e84ffedd6f34521c",
    "geo" : {
      "lat" : 37.9809226,
      "lng" : 23.7958083
    },
    "soundscapeQuality" : 4,
    "tags" : [ "walking", "door closing" ]
  },
  "-K1o1Qo2_RO4KqLZBrrY" : {
    "annotator" : {
      "age" : "2",
      "country" : "Greece",
      "education" : "3"
    },
    "csvFile" : "2015-10-29T14-35-48.981ZGPS37.981_23.796.csv",
    "deviceId" : "e84ffedd6f34521c",
    "geo" : {
      "lat" : 37.9809226,
      "lng" : 23.7958083
    },
    "soundscapeQuality" : 4,
    "tags" : [ "wind", "voice (adults)", "leaves" ]
  },
  "-K1oB5kQXGLFw0ypl2sD" : {
    "annotator" : {
      "age" : "2",
      "country" : "Greece",
      "education" : "4"
    },
    "csvFile" : "2015-10-29T15-20-16.829ZGPS37.962_23.723.csv",
    "deviceId" : "33b5bf2a8db11206",
    "geo" : {
      "lat" : 37.9624857,
      "lng" : 23.7232914
    },
    "soundscapeQuality" : 4,
    "tags" : [ "vehicles", "walking" ]
  },
  "-K1oI0495tPQ1rucHasV" : {
    "annotator" : {
      "age" : "2",
      "country" : "Greece",
      "education" : "3"
    },
    "csvFile" : "2015-10-29T15-50-43.814ZGPS38.011_23.729.csv",
    "deviceId" : "22dcab7692e1d0e6",
    "geo" : {
      "lat" : 38.0113237568441,
      "lng" : 23.729083539165003
    },
    "soundscapeQuality" : 4,
    "tags" : [ "machinery" ]
  },
  "-K1oRFL4pOVfqIJ-sY_9" : {
    "annotator" : {
      "age" : "2",
      "country" : "Greece",
      "education" : "4"
    },
    "csvFile" : "2015-10-29T16-31-01.238ZGPS38.027_23.813.csv",
    "deviceId" : "33b5bf2a8db11206",
    "geo" : {
      "lat" : 38.0270122,
      "lng" : 23.812542
    },
    "soundscapeQuality" : 3,
    "tags" : [ "vehicles", "wind" ]
  },
  "-K1oSE752fxOjOAEo3aZ" : {
    "annotator" : {
      "age" : "2",
      "country" : "Greece",
      "education" : "4"
    },
    "csvFile" : "2015-10-29T16-35-17.646ZGPS38.028_23.814.csv",
    "deviceId" : "33b5bf2a8db11206",
    "geo" : {
      "lat" : 38.0276471,
      "lng" : 23.814021
    },
    "soundscapeQuality" : 3,
    "tags" : [ "vehicles", "wind", "animals" ]
  },
  "-K1pCWzguuuXvKftAlhk" : {
    "annotator" : {
      "age" : "2",
      "country" : "Greece",
      "education" : "4"
    },
    "csvFile" : "2015-10-29T20-06-16.299ZGPS38.020_23.809.csv",
    "deviceId" : "33b5bf2a8db11206",
    "geo" : {
      "lat" : 38.0197131,
      "lng" : 23.8093445
    },
    "soundscapeQuality" : 4,
    "tags" : [ "vehicles", "wind" ]
  },
  "-K1pIYgK9BPVxlG3PnoX" : {
    "annotator" : {
      "age" : "2",
      "country" : "Greece",
      "education" : "3"
    },
    "csvFile" : "2015-10-29T20-31-49.475ZGPS37.976_23.765.csv",
    "deviceId" : "20a80da5890bbeb6",
    "geo" : {
      "lat" : 37.976386872876404,
      "lng" : 23.765130036044866
    },
    "soundscapeQuality" : 4
  },
  "-K1pJbb_CGEgp2OOmUfO" : {
    "annotator" : {
      "age" : "2",
      "country" : "Greece",
      "education" : "3"
    },
    "csvFile" : "2015-10-29T20-36-21.411ZGPS37.975_23.766.csv",
    "deviceId" : "20a80da5890bbeb6",
    "geo" : {
      "lat" : 37.9747036,
      "lng" : 23.7661272
    },
    "soundscapeQuality" : 3,
    "tags" : [ "vehicles" ]
  },
  "-K1pJqwOcoUeOv2Jf4a9" : {
    "annotator" : {
      "age" : "2",
      "country" : "Greece",
      "education" : "3"
    },
    "csvFile" : "2015-10-29T20-38-22.570ZGPS37.975_23.766.csv",
    "deviceId" : "20a80da5890bbeb6",
    "geo" : {
      "lat" : 37.9747036,
      "lng" : 23.7661272
    },
    "soundscapeQuality" : 3,
    "tags" : [ "vehicles", "voice (adults)" ]
  },
  "-K1pKKrPhZfVWbKY4irU" : {
    "annotator" : {
      "age" : "2",
      "country" : "Greece",
      "education" : "3"
    },
    "csvFile" : "2015-10-29T20-40-38.798ZGPS37.973_23.766.csv",
    "deviceId" : "20a80da5890bbeb6",
    "geo" : {
      "lat" : 37.9725656,
      "lng" : 23.7657312
    },
    "soundscapeQuality" : 3,
    "tags" : [ "vehicles" ]
  },
  "-K1pKdQz9C34tIJc1Mru" : {
    "annotator" : {
      "age" : "2",
      "country" : "Greece",
      "education" : "3"
    },
    "csvFile" : "2015-10-29T20-41-32.584ZGPS37.973_23.766.csv",
    "deviceId" : "20a80da5890bbeb6",
    "geo" : {
      "lat" : 37.9725656,
      "lng" : 23.7657312
    },
    "soundscapeQuality" : 3,
    "tags" : [ "vehicles" ]
  },
  "-K1pKz1gd9dml1F1a2bV" : {
    "annotator" : {
      "age" : "2",
      "country" : "Greece",
      "education" : "3"
    },
    "csvFile" : "2015-10-29T20-43-08.534ZGPS37.974_23.762.csv",
    "deviceId" : "20a80da5890bbeb6",
    "geo" : {
      "lat" : 37.974227457474726,
      "lng" : 23.762111671130697
    },
    "soundscapeQuality" : 3,
    "tags" : [ "vehicles" ]
  },
  "-K1pLR0Z6HYi7xVrmYpG" : {
    "annotator" : {
      "age" : "2",
      "country" : "Greece",
      "education" : "3"
    },
    "csvFile" : "2015-10-29T20-45-24.035ZGPS37.971_23.768.csv",
    "deviceId" : "20a80da5890bbeb6",
    "geo" : {
      "lat" : 37.970886688315616,
      "lng" : 23.767869472503662
    },
    "soundscapeQuality" : 3
  },
  "-K1pLqJjb0oAAjTZDd4P" : {
    "annotator" : {
      "age" : "2",
      "country" : "Greece",
      "education" : "3"
    },
    "csvFile" : "2015-10-29T20-47-12.765ZGPS37.972_23.769.csv",
    "deviceId" : "20a80da5890bbeb6",
    "geo" : {
      "lat" : 37.9720735945701,
      "lng" : 23.76874209181551
    },
    "soundscapeQuality" : 3,
    "tags" : [ "voice (adults)" ]
  },
  "-K1pM3JqNQTlKKmiqZ73" : {
    "annotator" : {
      "age" : "2",
      "country" : "Greece",
      "education" : "3"
    },
    "csvFile" : "2015-10-29T20-48-01.602ZGPS37.972_23.769.csv",
    "deviceId" : "20a80da5890bbeb6",
    "geo" : {
      "lat" : 37.9720735945701,
      "lng" : 23.76874209181551
    },
    "soundscapeQuality" : 3,
    "tags" : [ "vehicles" ]
  },
  "-K1pMXBcjeWKjr1-04WN" : {
    "annotator" : {
      "age" : "2",
      "country" : "Greece",
      "education" : "3"
    },
    "csvFile" : "2015-10-29T20-50-12.644ZGPS37.976_23.769.csv",
    "deviceId" : "20a80da5890bbeb6",
    "geo" : {
      "lat" : 37.975727,
      "lng" : 23.7686855
    },
    "soundscapeQuality" : 1,
    "tags" : [ "vehicles", "sirens/horns" ]
  },
  "-K1pMnELen7Ugrl8qY1e" : {
    "annotator" : {
      "age" : "2",
      "country" : "Greece",
      "education" : "3"
    },
    "csvFile" : "2015-10-29T20-51-01.603ZGPS37.976_23.769.csv",
    "deviceId" : "20a80da5890bbeb6",
    "geo" : {
      "lat" : 37.975727,
      "lng" : 23.7686855
    },
    "soundscapeQuality" : 1,
    "tags" : [ "vehicles", "sirens/horns" ]
  },
  "-K1pNXoo3hd6OqEB7sPv" : {
    "annotator" : {
      "age" : "2",
      "country" : "Greece",
      "education" : "3"
    },
    "csvFile" : "2015-10-29T20-54-30.352ZGPS37.978_23.765.csv",
    "deviceId" : "20a80da5890bbeb6",
    "geo" : {
      "lat" : 37.9782162,
      "lng" : 23.7648498
    },
    "soundscapeQuality" : 3,
    "tags" : [ "vehicles" ]
  },
  "-K1pVrkkovZxK756s7aD" : {
    "annotator" : {
      "age" : "2",
      "country" : "Greece",
      "education" : "3"
    },
    "csvFile" : "2015-10-29T21-30-13.394ZGPS38.012_23.695.csv",
    "deviceId" : "18b988415c9464ba",
    "geo" : {
      "lat" : 38.0116605,
      "lng" : 23.6945194
    },
    "soundscapeQuality" : 3,
    "tags" : [ "vehicles", "wind", "voice (adults)", "music" ]
  },
  "-K1pi0rSAzCCPhbw2_6j" : {
    "annotator" : {
      "age" : "2",
      "country" : "Greece",
      "education" : "3"
    },
    "csvFile" : "2015-10-29T22-23-59.037ZGPS38.012_23.695.csv",
    "deviceId" : "18b988415c9464ba",
    "geo" : {
      "lat" : 38.0116605,
      "lng" : 23.6945194
    },
    "soundscapeQuality" : 2,
    "tags" : [ "vehicles", "wind" ]
  },
  "-K1rPf94jtu_ZV9ryJ-Q" : {
    "annotator" : {
      "age" : "2",
      "country" : "Greece",
      "education" : "3"
    },
    "csvFile" : "2015-10-30T06-22-47.436ZGPS37.993_23.776.csv",
    "deviceId" : "e84ffedd6f34521c",
    "geo" : {
      "lat" : 37.9929743,
      "lng" : 23.7759803
    },
    "soundscapeQuality" : 3,
    "tags" : [ "vehicles" ]
  },
  "-K1rSCgpRq0FPLjCbKbq" : {
    "annotator" : {
      "age" : "2",
      "country" : "Greece",
      "education" : "3"
    },
    "csvFile" : "2015-10-30T06-34-04.374ZGPS37.987_23.757.csv",
    "deviceId" : "e84ffedd6f34521c",
    "geo" : {
      "lat" : 37.9873607,
      "lng" : 23.7568829
    },
    "soundscapeQuality" : 3,
    "tags" : [ "vehicles", "voice (adults)" ]
  },
  "-K1rTA8xpO3WbdkvJRm4" : {
    "annotator" : {
      "age" : "2",
      "country" : "Greece",
      "education" : "3"
    },
    "csvFile" : "2015-10-30T06-38-13.209ZGPS37.987_23.760.csv",
    "deviceId" : "e84ffedd6f34521c",
    "geo" : {
      "lat" : 37.986678,
      "lng" : 23.759836
    },
    "soundscapeQuality" : 2,
    "tags" : [ "machinery" ]
  },
  "-K1rU2h_Tf9fBPXV2Xbq" : {
    "annotator" : {
      "age" : "2",
      "country" : "Greece",
      "education" : "3"
    },
    "csvFile" : "2015-10-30T06-42-01.334ZGPS37.986_23.762.csv",
    "deviceId" : "e84ffedd6f34521c",
    "geo" : {
      "lat" : 37.9863505,
      "lng" : 23.7616254
    },
    "soundscapeQuality" : 3,
    "tags" : [ "vehicles" ]
  },
  "-K1rX2hDpBd-BRMAsbFf" : {
    "annotator" : {
      "age" : "2",
      "country" : "Greece",
      "education" : "3"
    },
    "csvFile" : "2015-10-30T06-55-10.909ZGPS37.978_23.735.csv",
    "deviceId" : "22dcab7692e1d0e6",
    "geo" : {
      "lat" : 37.97789553008565,
      "lng" : 23.73506358850136
    },
    "soundscapeQuality" : 5,
    "tags" : [ "machinery" ]
  },
  "-K1r_hfvKTwxqgGj9b6J" : {
    "annotator" : {
      "age" : "2",
      "country" : "Greece",
      "education" : "3"
    },
    "csvFile" : "2015-10-30T07-11-02.500ZGPS37.980_23.736.csv",
    "deviceId" : "22dcab7692e1d0e6",
    "geo" : {
      "lat" : 37.98006554385407,
      "lng" : 23.735572200421302
    },
    "soundscapeQuality" : 4,
    "tags" : [ "machinery" ]
  },
  "-K1s8C0229MErzXJ7L7R" : {
    "annotator" : {
      "age" : "2",
      "country" : "Greece",
      "education" : "3"
    },
    "csvFile" : "2015-10-30T09-46-14.926ZGPS37.976_23.730.csv",
    "deviceId" : "22dcab7692e1d0e6",
    "geo" : {
      "lat" : 37.97552625891789,
      "lng" : 23.730082951951772
    },
    "soundscapeQuality" : 3,
    "tags" : [ "machinery" ]
  },
  "-K1squmzrqme1D07yrDu" : {
    "annotator" : {
      "age" : "2",
      "country" : "Greece",
      "education" : "3"
    },
    "csvFile" : "2015-10-30T13-06-04.863ZGPS37.976_23.780.csv",
    "deviceId" : "20a80da5890bbeb6",
    "geo" : {
      "lat" : 37.9759583638767,
      "lng" : 23.779678337414225
    },
    "soundscapeQuality" : 4,
    "tags" : [ "birds", "walking" ]
  },
  "-K1stwL_78xsb7fTQ0kP" : {
    "annotator" : {
      "age" : "2",
      "country" : "Greece",
      "education" : "3"
    },
    "csvFile" : "2015-10-30T13-19-13.578ZGPS37.980_23.764.csv",
    "deviceId" : "20a80da5890bbeb6",
    "geo" : {
      "lat" : 37.9797141,
      "lng" : 23.763734
    },
    "soundscapeQuality" : 3,
    "tags" : [ "wind", "voice (adults)" ]
  },
  "-K1suFIKWfaQRV7J8qZ1" : {
    "annotator" : {
      "age" : "2",
      "country" : "Greece",
      "education" : "3"
    },
    "csvFile" : "2015-10-30T13-20-33.796ZGPS37.983_23.763.csv",
    "deviceId" : "20a80da5890bbeb6",
    "geo" : {
      "lat" : 37.9825029,
      "lng" : 23.7629166
    },
    "soundscapeQuality" : 3,
    "tags" : [ "voice (children)", "walking" ]
  },
  "-K1sucKBh_SWGrUB9jeR" : {
    "annotator" : {
      "age" : "2",
      "country" : "Greece",
      "education" : "3"
    },
    "csvFile" : "2015-10-30T13-22-16.236ZGPS37.982_23.763.csv",
    "deviceId" : "20a80da5890bbeb6",
    "geo" : {
      "lat" : 37.98173723525492,
      "lng" : 23.763234615325928
    },
    "soundscapeQuality" : 3,
    "tags" : [ "vehicles", "walking" ]
  },
  "-K1svUYPxryUOVs30JCM" : {
    "annotator" : {
      "age" : "2",
      "country" : "Greece",
      "education" : "3"
    },
    "csvFile" : "2015-10-30T13-25-32.494ZGPS37.983_23.763.csv",
    "deviceId" : "20a80da5890bbeb6",
    "geo" : {
      "lat" : 37.983310135428795,
      "lng" : 23.762612342834473
    },
    "soundscapeQuality" : 2,
    "tags" : [ "vehicles" ]
  },
  "-K1svq33wUWTXIZcjGAc" : {
    "annotator" : {
      "age" : "2",
      "country" : "Greece",
      "education" : "3"
    },
    "csvFile" : "2015-10-30T13-27-39.218ZGPS37.984_23.764.csv",
    "deviceId" : "20a80da5890bbeb6",
    "geo" : {
      "lat" : 37.9840605,
      "lng" : 23.7638614
    },
    "soundscapeQuality" : 2,
    "tags" : [ "vehicles" ]
  },
  "-K1sy7RGKJhSuCpxr7AJ" : {
    "annotator" : {
      "age" : "2",
      "country" : "Greece",
      "education" : "3"
    },
    "csvFile" : "2015-10-30T13-37-34.050ZGPS37.984_23.764.csv",
    "deviceId" : "20a80da5890bbeb6",
    "geo" : {
      "lat" : 37.9837409,
      "lng" : 23.7644989
    },
    "soundscapeQuality" : 3,
    "tags" : [ "voice (children)" ]
  },
  "-K1szvho3yJ7gQn3YWS8" : {
    "annotator" : {
      "age" : "2",
      "country" : "Greece",
      "education" : "3"
    },
    "csvFile" : "2015-10-30T13-45-29.278ZGPS37.981_23.766.csv",
    "deviceId" : "20a80da5890bbeb6",
    "geo" : {
      "lat" : 37.9814414,
      "lng" : 23.7657609
    },
    "soundscapeQuality" : 3,
    "tags" : [ "vehicles", "walking" ]
  },
  "-K1t-WHhXTywHsakjoMX" : {
    "annotator" : {
      "age" : "2",
      "country" : "Greece",
      "education" : "3"
    },
    "csvFile" : "2015-10-30T13-47-55.223ZGPS37.980_23.767.csv",
    "deviceId" : "20a80da5890bbeb6",
    "geo" : {
      "lat" : 37.9804245,
      "lng" : 23.7667586
    },
    "soundscapeQuality" : 4,
    "tags" : [ "walking" ]
  },
  "-K1t6Yc0yT0rcEBXnini" : {
    "annotator" : {
      "age" : "2",
      "country" : "Greece",
      "education" : "3"
    },
    "csvFile" : "2015-10-30T14-18-16.650ZGPS37.976_23.730.csv",
    "deviceId" : "22dcab7692e1d0e6",
    "geo" : {
      "lat" : 37.97615570451209,
      "lng" : 23.730393648147583
    },
    "soundscapeQuality" : 4,
    "tags" : [ "voice (adults)" ]
  },
  "-K1t8K8xUwTsgZvfJl63" : {
    "annotator" : {
      "age" : "2",
      "country" : "Greece",
      "education" : "3"
    },
    "csvFile" : "2015-10-30T14-26-29.134ZGPS37.977_23.726.csv",
    "deviceId" : "22dcab7692e1d0e6",
    "geo" : {
      "lat" : 37.97676004397068,
      "lng" : 23.725602203594462
    },
    "soundscapeQuality" : 4,
    "tags" : [ "machinery" ]
  },
  "-K1uSAq_xmmkJAoSgltZ" : {
    "annotator" : {
      "age" : "2",
      "country" : "Greece",
      "education" : "3"
    },
    "csvFile" : "2015-10-30T20-32-53.702ZGPS38.059_23.798.csv",
    "deviceId" : "e84ffedd6f34521c",
    "geo" : {
      "lat" : 38.0592688,
      "lng" : 23.7983793
    },
    "soundscapeQuality" : 3,
    "tags" : [ "vehicles", "voice (adults)" ]
  },
  "-K1uhlIrNJolYGbyEhRZ" : {
    "annotator" : {
      "age" : "2",
      "country" : "Greece",
      "education" : "3"
    },
    "csvFile" : "2015-10-30T21-43-02.357ZGPS38.071_23.791.csv",
    "deviceId" : "e84ffedd6f34521c",
    "geo" : {
      "lat" : 38.0713015,
      "lng" : 23.7910788
    },
    "soundscapeQuality" : 4,
    "tags" : [ "wind" ]
  },
  "-K1xNFNK6zXeWpocWtio" : {
    "annotator" : {
      "age" : "2",
      "country" : "Greece",
      "education" : "3"
    },
    "csvFile" : "2015-10-31T10-09-57.395ZGPS37.979_23.767.csv",
    "deviceId" : "20a80da5890bbeb6",
    "geo" : {
      "lat" : 37.9787858,
      "lng" : 23.7665048
    },
    "soundscapeQuality" : 2,
    "tags" : [ "vehicles", "voice (adults)" ]
  },
  "-K1xRI2WPSRpSH4lBPJU" : {
    "annotator" : {
      "age" : "2",
      "country" : "Greece",
      "education" : "3"
    },
    "csvFile" : "2015-10-31T10-25-35.726ZGPS38.037_23.799.csv",
    "deviceId" : "e84ffedd6f34521c",
    "geo" : {
      "lat" : 38.0369668,
      "lng" : 23.7987644
    },
    "soundscapeQuality" : 4,
    "tags" : [ "vehicles", "wind" ]
  },
  "-K1xRXfKskHjIxmgiYiy" : {
    "annotator" : {
      "age" : "2",
      "country" : "Greece",
      "education" : "3"
    },
    "csvFile" : "2015-10-31T10-28-59.214ZGPS38.012_23.782.csv",
    "deviceId" : "e84ffedd6f34521c",
    "geo" : {
      "lat" : 38.0119963,
      "lng" : 23.78189
    },
    "soundscapeQuality" : 3,
    "tags" : [ "vehicles" ]
  },
  "-K2GLxVdKtMAzcju79MV" : {
    "annotator" : {
      "age" : "2",
      "country" : "Greece",
      "education" : "3"
    },
    "csvFile" : "2015-11-04T07-15-31.099ZGPS37.985_23.761.csv",
    "deviceId" : "f7d38721f2b175f3",
    "geo" : {
      "lat" : 37.9854903,
      "lng" : 23.7610058
    },
    "soundscapeQuality" : 2,
    "tags" : [ "vehicles" ]
  },
  "-K2QwmSO5_khW7myV4oS" : {
    "annotator" : {
      "age" : "2",
      "country" : "Greece",
      "education" : "3"
    },
    "csvFile" : "2015-11-06T08-37-58.829ZGPS38.005_23.717.csv",
    "deviceId" : "f7d38721f2b175f3",
    "geo" : {
      "lat" : 38.0053316,
      "lng" : 23.7171983
    },
    "soundscapeQuality" : 2,
    "tags" : [ "subway/trains" ]
  },
  "-K2R1sfK1B4DCXj3KyFb" : {
    "annotator" : {
      "age" : "2",
      "country" : "Greece",
      "education" : "3"
    },
    "csvFile" : "2015-11-06T09-04-59.713ZGPS37.978_23.752.csv",
    "deviceId" : "20a80da5890bbeb6",
    "geo" : {
      "lat" : 37.9782393,
      "lng" : 23.752071
    },
    "soundscapeQuality" : 2,
    "tags" : [ "subway/trains", "voice (adults)" ]
  },
  "-K2RhhcLI1QzICZWQLvU" : {
    "annotator" : {
      "age" : "2",
      "country" : "Greece",
      "education" : "3"
    },
    "csvFile" : "2015-11-06T12-12-14.904ZGPS38.000_23.817.csv",
    "deviceId" : "20a80da5890bbeb6",
    "geo" : {
      "lat" : 38.0001194,
      "lng" : 23.8165954
    },
    "soundscapeQuality" : 3,
    "tags" : [ "vehicles" ]
  },
  "-K2Rj2im1Psx0Hc9ZgKF" : {
    "annotator" : {
      "age" : "2",
      "country" : "Greece",
      "education" : "3"
    },
    "csvFile" : "2015-11-06T12-18-07.993ZGPS38.000_23.817.csv",
    "deviceId" : "20a80da5890bbeb6",
    "geo" : {
      "lat" : 38.0001194,
      "lng" : 23.8165954
    },
    "soundscapeQuality" : 3,
    "tags" : [ "vehicles" ]
  },
  "-K2Rn8w3rj_wl0QX5VOR" : {
    "annotator" : {
      "age" : "2",
      "country" : "Greece",
      "education" : "3"
    },
    "csvFile" : "2015-11-06T12-35-48.016ZGPS38.010_23.807.csv",
    "deviceId" : "20a80da5890bbeb6",
    "geo" : {
      "lat" : 38.0100346,
      "lng" : 23.8066272
    },
    "soundscapeQuality" : 2,
    "tags" : [ "subway/trains" ]
  },
  "-K2Rnp9XHsjju5B2tpA4" : {
    "annotator" : {
      "age" : "2",
      "country" : "Greece",
      "education" : "3"
    },
    "csvFile" : "2015-11-06T12-37-02.410ZGPS38.010_23.807.csv",
    "deviceId" : "20a80da5890bbeb6",
    "geo" : {
      "lat" : 38.0100346,
      "lng" : 23.8066272
    },
    "soundscapeQuality" : 1,
    "tags" : [ "subway/trains" ]
  },
  "-K2Rod7ha3mEhKbvM3yb" : {
    "annotator" : {
      "age" : "2",
      "country" : "Greece",
      "education" : "3"
    },
    "csvFile" : "2015-11-06T12-42-18.614ZGPS38.001_23.792.csv",
    "deviceId" : "20a80da5890bbeb6",
    "geo" : {
      "lat" : 38.0014337,
      "lng" : 23.7919964
    },
    "soundscapeQuality" : 1,
    "tags" : [ "subway/trains", "voice (adults)" ]
  },
  "-K2Rqc30VWEkaAUaXV-E" : {
    "annotator" : {
      "age" : "2",
      "country" : "Greece",
      "education" : "3"
    },
    "csvFile" : "2015-11-06T12-50-58.691ZGPS38.010_23.812.csv",
    "deviceId" : "20a80da5890bbeb6",
    "geo" : {
      "lat" : 38.0101606,
      "lng" : 23.8124675
    },
    "soundscapeQuality" : 4,
    "tags" : [ "voice (adults)", "music" ]
  },
  "-K2RqnzaezNDLejozTcW" : {
    "annotator" : {
      "age" : "2",
      "country" : "Greece",
      "education" : "3"
    },
    "csvFile" : "2015-11-06T12-52-03.531ZGPS38.010_23.812.csv",
    "deviceId" : "20a80da5890bbeb6",
    "geo" : {
      "lat" : 38.0101606,
      "lng" : 23.8124675
    },
    "soundscapeQuality" : 4,
    "tags" : [ "music" ]
  },
  "-K2RrZBVwagSFfDuucKt" : {
    "annotator" : {
      "age" : "2",
      "country" : "Greece",
      "education" : "3"
    },
    "csvFile" : "2015-11-06T12-55-20.084ZGPS37.976_23.749.csv",
    "deviceId" : "20a80da5890bbeb6",
    "geo" : {
      "lat" : 37.9762532,
      "lng" : 23.7492629
    },
    "soundscapeQuality" : 2,
    "tags" : [ "vehicles", "voice (adults)" ]
  },
  "-K2RrlQ0cPZv27fFA1oT" : {
    "annotator" : {
      "age" : "2",
      "country" : "Greece",
      "education" : "3"
    },
    "csvFile" : "2015-11-06T12-56-11.862ZGPS37.976_23.749.csv",
    "deviceId" : "20a80da5890bbeb6",
    "geo" : {
      "lat" : 37.9762532,
      "lng" : 23.7492629
    },
    "soundscapeQuality" : 2,
    "tags" : [ "vehicles" ]
  },
  "-K2RrxTn8seUvnFxXKtZ" : {
    "annotator" : {
      "age" : "2",
      "country" : "Greece",
      "education" : "3"
    },
    "csvFile" : "2015-11-06T12-57-05.707ZGPS37.976_23.749.csv",
    "deviceId" : "20a80da5890bbeb6",
    "geo" : {
      "lat" : 37.9762532,
      "lng" : 23.7492629
    },
    "soundscapeQuality" : 2,
    "tags" : [ "vehicles" ]
  },
  "-K2UA2PPBLpgqrLVrjG7" : {
    "annotator" : {
      "age" : "2",
      "country" : "Greece",
      "education" : "2"
    },
    "csvFile" : "2015-11-06T23-39-30.832ZGPS37.993_23.767.csv",
    "deviceId" : "845cd8a2ede5e5a1",
    "geo" : {
      "lat" : 37.992871440947056,
      "lng" : 23.766724839806557
    },
    "soundscapeQuality" : 2,
    "tags" : [ "vehicles" ]
  },
  "-K2UAZFMl2FTHwwkdnt4" : {
    "annotator" : {
      "age" : "2",
      "country" : "Greece",
      "education" : "3"
    },
    "csvFile" : "2015-11-06T23-41-42.502ZGPS37.993_23.767.csv",
    "deviceId" : "845cd8a2ede5e5a1",
    "geo" : {
      "lat" : 37.992871440947056,
      "lng" : 23.766724839806557
    },
    "soundscapeQuality" : 2,
    "tags" : [ "vehicles" ]
  },
  "-K2UB-qsCcZuIZYSijGH" : {
    "annotator" : {
      "age" : "2",
      "country" : "Greece",
      "education" : "3"
    },
    "csvFile" : "2015-11-06T23-43-29.858ZGPS37.993_23.766.csv",
    "deviceId" : "845cd8a2ede5e5a1",
    "geo" : {
      "lat" : 37.99327205400914,
      "lng" : 23.766096951439977
    },
    "soundscapeQuality" : 2,
    "tags" : [ "vehicles" ]
  },
  "-K2qDulWr55A9A17Xj37" : {
    "annotator" : {
      "age" : "2",
      "country" : "Greece",
      "education" : "3"
    },
    "csvFile" : "2015-11-11T11-07-38.271ZGPS37.978_23.784.csv",
    "deviceId" : "20a80da5890bbeb6",
    "geo" : {
      "lat" : 37.9781428,
      "lng" : 23.7837104
    },
    "soundscapeQuality" : 4,
    "tags" : [ "voice (adults)" ]
  },
  "-K2vg0XaRipYqm45K4oO" : {
    "annotator" : {
      "age" : "2",
      "country" : "Greece",
      "education" : "3"
    },
    "csvFile" : "2015-11-12T12-32-33.537ZGPS37.978_23.781.csv",
    "deviceId" : "20a80da5890bbeb6",
    "geo" : {
      "lat" : 37.9783535,
      "lng" : 23.7805964
    },
    "soundscapeQuality" : 4,
    "tags" : [ "birds" ]
  },
  "-K2vgTw6GjNWkJ6UFnAL" : {
    "annotator" : {
      "age" : "2",
      "country" : "Greece",
      "education" : "3"
    },
    "csvFile" : "2015-11-12T12-35-09.878ZGPS37.976_23.779.csv",
    "deviceId" : "20a80da5890bbeb6",
    "geo" : {
      "lat" : 37.975932,
      "lng" : 23.7792366
    },
    "soundscapeQuality" : 4,
    "tags" : [ "birds" ]
  },
  "-K30Cqgmp4KDRnoTQGyV" : {
    "annotator" : {
      "age" : "",
      "country" : "Greece",
      "education" : "3"
    },
    "csvFile" : "2015-11-13T14-18-10.461ZGPS37.977_23.781.csv",
    "deviceId" : "20a80da5890bbeb6",
    "geo" : {
      "lat" : 37.9774596,
      "lng" : 23.7807758
    },
    "soundscapeQuality" : 3,
    "tags" : [ "airplanes", "birds" ]
  },
  "-K30DBxGrl2yc_MJqARp" : {
    "annotator" : {
      "age" : "2",
      "country" : "Greece",
      "education" : "3"
    },
    "csvFile" : "2015-11-13T14-19-51.771ZGPS37.977_23.781.csv",
    "deviceId" : "20a80da5890bbeb6",
    "geo" : {
      "lat" : 37.9774596,
      "lng" : 23.7807758
    },
    "soundscapeQuality" : 3,
    "tags" : [ "sirens/horns", "birds" ]
  },
  "-K30DNu7Jzhvt543x1xR" : {
    "annotator" : {
      "age" : "2",
      "country" : "Greece",
      "education" : "3"
    },
    "csvFile" : "2015-11-13T14-21-20.669ZGPS37.977_23.781.csv",
    "deviceId" : "20a80da5890bbeb6",
    "geo" : {
      "lat" : 37.9774596,
      "lng" : 23.7807758
    },
    "soundscapeQuality" : 4,
    "tags" : [ "birds" ]
  },
  "-K30DknMR8ibwjyen50T" : {
    "annotator" : {
      "age" : "2",
      "country" : "Greece",
      "education" : "3"
    },
    "csvFile" : "2015-11-13T14-22-23.664ZGPS37.977_23.781.csv",
    "deviceId" : "20a80da5890bbeb6",
    "geo" : {
      "lat" : 37.9774596,
      "lng" : 23.7807758
    },
    "soundscapeQuality" : 4,
    "tags" : [ "walking" ]
  },
  "-K30FxeAxDnC0DutZcqT" : {
    "annotator" : {
      "age" : "2",
      "country" : "Greece",
      "education" : "3"
    },
    "csvFile" : "2015-11-13T14-32-08.514ZGPS37.979_23.766.csv",
    "deviceId" : "20a80da5890bbeb6",
    "geo" : {
      "lat" : 37.9788611,
      "lng" : 23.7662322
    },
    "soundscapeQuality" : 2,
    "tags" : [ "vehicles" ]
  },
  "-K30GQXoc3JZRmW0ONXD" : {
    "annotator" : {
      "age" : "2",
      "country" : "Greece",
      "education" : "3"
    },
    "csvFile" : "2015-11-13T14-34-43.904ZGPS37.978_23.766.csv",
    "deviceId" : "20a80da5890bbeb6",
    "geo" : {
      "lat" : 37.9782366,
      "lng" : 23.7659905
    },
    "soundscapeQuality" : 4,
    "tags" : [ "birds" ]
  },
  "-K30GgDuSKDFk7U-ir_O" : {
    "annotator" : {
      "age" : "2",
      "country" : "Greece",
      "education" : "3"
    },
    "csvFile" : "2015-11-13T14-35-28.862ZGPS37.978_23.766.csv",
    "deviceId" : "20a80da5890bbeb6",
    "geo" : {
      "lat" : 37.9782366,
      "lng" : 23.7659905
    },
    "soundscapeQuality" : 4,
    "tags" : [ "birds" ]
  },
  "-K35QVv84nEBYnMQpbaR" : {
    "annotator" : {
      "age" : "2",
      "country" : "Greece",
      "education" : "3"
    },
    "csvFile" : "2015-11-14T14-36-49.551ZGPS37.979_23.764.csv",
    "deviceId" : "20a80da5890bbeb6",
    "geo" : {
      "lat" : 37.9787889,
      "lng" : 23.7644589
    },
    "soundscapeQuality" : 4,
    "tags" : [ "vehicles", "birds" ]
  },
  "-K35Qt6_p5kwTJ41wWgI" : {
    "annotator" : {
      "age" : "2",
      "country" : "Greece",
      "education" : "3"
    },
    "csvFile" : "2015-11-14T14-38-31.442ZGPS37.979_23.764.csv",
    "deviceId" : "20a80da5890bbeb6",
    "geo" : {
      "lat" : 37.9787609,
      "lng" : 23.7644455
    },
    "soundscapeQuality" : 4,
    "tags" : [ "birds" ]
  },
  "-K3FoO19sU-AwerieGOt" : {
    "annotator" : {
      "age" : "2",
      "country" : "Greece",
      "education" : "3"
    },
    "csvFile" : "2015-11-16T15-01-31.021ZGPS37.993_23.766.csv",
    "deviceId" : "20a80da5890bbeb6",
    "geo" : {
      "lat" : 37.9927321,
      "lng" : 23.7663735
    },
    "soundscapeQuality" : 2,
    "tags" : [ "subway/trains" ]
  },
  "-K3FpRZGAcSeFYwbTZLi" : {
    "annotator" : {
      "age" : "2",
      "country" : "Greece",
      "education" : "3"
    },
    "csvFile" : "2015-11-16T15-05-41.640ZGPS37.993_23.766.csv",
    "deviceId" : "20a80da5890bbeb6",
    "geo" : {
      "lat" : 37.9927321,
      "lng" : 23.7663735
    },
    "soundscapeQuality" : 2,
    "tags" : [ "subway/trains" ]
  },
  "-K3OxkHUbIXVhhh_DS2e" : {
    "annotator" : {
      "age" : "2",
      "country" : "Greece",
      "education" : "3"
    },
    "csvFile" : "2015-11-18T09-39-12.920ZGPS37.978_23.768.csv",
    "deviceId" : "20a80da5890bbeb6",
    "geo" : {
      "lat" : 37.9783882,
      "lng" : 23.7680048
    },
    "soundscapeQuality" : 3,
    "tags" : [ "vehicles" ]
  },
  "-K3Oy-qRUjemv57kMETT" : {
    "annotator" : {
      "age" : "2",
      "country" : "Greece",
      "education" : "3"
    },
    "csvFile" : "2015-11-18T09-40-17.652ZGPS37.978_23.768.csv",
    "deviceId" : "20a80da5890bbeb6",
    "geo" : {
      "lat" : 37.9783882,
      "lng" : 23.7680048
    },
    "soundscapeQuality" : 3,
    "tags" : [ "vehicles", "voice (adults)" ]
  },
  "-K3PV1ekQI-wlm82PeGl" : {
    "annotator" : {
      "age" : "2",
      "country" : "Greece",
      "education" : "3"
    },
    "csvFile" : "2015-11-18T12-08-50.889ZGPS37.978_23.781.csv",
    "deviceId" : "20a80da5890bbeb6",
    "geo" : {
      "lat" : 37.9784432,
      "lng" : 23.7806663
    },
    "soundscapeQuality" : 4,
    "tags" : [ "voice (adults)", "walking" ]
  },
  "-K3PVPQAymleiep6BCHJ" : {
    "annotator" : {
      "age" : "2",
      "country" : "Greece",
      "education" : "3"
    },
    "csvFile" : "2015-11-18T12-10-38.615ZGPS37.976_23.778.csv",
    "deviceId" : "20a80da5890bbeb6",
    "geo" : {
      "lat" : 37.9760141,
      "lng" : 23.7776213
    },
    "soundscapeQuality" : 3,
    "tags" : [ "vehicles", "voice (adults)" ]
  },
  "-K3PVeBP38ai0PmHe5ua" : {
    "annotator" : {
      "age" : "2",
      "country" : "Greece",
      "education" : "3"
    },
    "csvFile" : "2015-11-18T12-11-27.401ZGPS37.976_23.778.csv",
    "deviceId" : "20a80da5890bbeb6",
    "geo" : {
      "lat" : 37.9760141,
      "lng" : 23.7776213
    },
    "soundscapeQuality" : 3,
    "tags" : [ "vehicles", "voice (adults)" ]
  },
  "-K3PW09uWeMDsJN8gbmc" : {
    "annotator" : {
      "age" : "2",
      "country" : "Greece",
      "education" : "3"
    },
    "csvFile" : "2015-11-18T12-13-16.757ZGPS37.976_23.778.csv",
    "deviceId" : "20a80da5890bbeb6",
    "geo" : {
      "lat" : 37.9760141,
      "lng" : 23.7776213
    },
    "soundscapeQuality" : 3,
    "tags" : [ "vehicles", "voice (adults)" ]
  },
  "-K3PW_dcPrxP_AEL-Dvj" : {
    "annotator" : {
      "age" : "2",
      "country" : "Greece",
      "education" : "3"
    },
    "csvFile" : "2015-11-18T12-15-43.808ZGPS37.976_23.778.csv",
    "deviceId" : "20a80da5890bbeb6",
    "geo" : {
      "lat" : 37.9760141,
      "lng" : 23.7776213
    },
    "soundscapeQuality" : 3,
    "tags" : [ "voice (adults)" ]
  },
  "-K3RabWOsF2uhTw9QrQ-" : {
    "annotator" : {
      "age" : "2",
      "country" : "Greece",
      "education" : "3"
    },
    "csvFile" : "2015-11-18T21-56-34.829ZGPS38.021_23.799.csv",
    "deviceId" : "4f091a29106691a7",
    "geo" : {
      "lat" : 38.0207942,
      "lng" : 23.7989318
    },
    "soundscapeQuality" : 3,
    "tags" : [ "voice (adults)", "music" ]
  },
  "-K3UL2xbb0Fu6PxPHvlH" : {
    "annotator" : {
      "age" : "2",
      "country" : "Greece",
      "education" : "3"
    },
    "csvFile" : "2015-11-19T10-43-04.986ZGPS37.994_23.773.csv",
    "deviceId" : "4f091a29106691a7",
    "geo" : {
      "lat" : 37.9939049,
      "lng" : 23.7729661
    },
    "soundscapeQuality" : 3,
    "tags" : [ "voice (adults)" ]
  },
  "-K3fCZ16ZDIxeIW1RgJk" : {
    "annotator" : {
      "age" : "2",
      "country" : "Greece",
      "education" : "3"
    },
    "csvFile" : "2015-11-21T18-01-30.157ZGPS37.994_23.773.csv",
    "deviceId" : "4f091a29106691a7",
    "geo" : {
      "lat" : 37.9940418,
      "lng" : 23.7729475
    },
    "soundscapeQuality" : 3,
    "tags" : [ "voice (adults)" ]
  },
  "-K3j_ZyU38VUbeq2qPhA" : {
    "annotator" : {
      "age" : "2",
      "country" : "Greece",
      "education" : "3"
    },
    "csvFile" : "2015-11-22T14-25-16.464ZGPS37.977_23.773.csv",
    "deviceId" : "20a80da5890bbeb6",
    "geo" : {
      "lat" : 37.9771804,
      "lng" : 23.7727167
    },
    "soundscapeQuality" : 4,
    "tags" : [ "music" ]
  },
  "-K3j_ukdQOwjNmhSJtuk" : {
    "annotator" : {
      "age" : "2",
      "country" : "Greece",
      "education" : "3"
    },
    "csvFile" : "2015-11-22T14-26-10.043ZGPS37.977_23.773.csv",
    "deviceId" : "20a80da5890bbeb6",
    "geo" : {
      "lat" : 37.9771804,
      "lng" : 23.7727167
    },
    "soundscapeQuality" : 4,
    "tags" : [ "voice (adults)", "music" ]
  },
  "-K3jatsFi0j6kfRKuZ1p" : {
    "annotator" : {
      "age" : "2",
      "country" : "Greece",
      "education" : "3"
    },
    "csvFile" : "2015-11-22T14-31-03.251ZGPS37.977_23.773.csv",
    "deviceId" : "20a80da5890bbeb6",
    "geo" : {
      "lat" : 37.9771899,
      "lng" : 23.7727101
    },
    "soundscapeQuality" : 4,
    "tags" : [ "music" ]
  },
  "-K3jbdcMk8FINB_i8TAG" : {
    "annotator" : {
      "age" : "",
      "country" : "Greece",
      "education" : ""
    },
    "csvFile" : "2015-11-22T14-34-28.015ZGPS37.993_23.766.csv",
    "deviceId" : "4f091a29106691a7",
    "geo" : {
      "lat" : 37.9927719,
      "lng" : 23.766413
    },
    "soundscapeQuality" : 3,
    "tags" : [ "subway/trains" ]
  },
  "-K3jc80pc12XLqxvT6UO" : {
    "annotator" : {
      "age" : "2",
      "country" : "Greece",
      "education" : "3"
    },
    "csvFile" : "2015-11-22T14-36-24.086ZGPS37.977_23.773.csv",
    "deviceId" : "20a80da5890bbeb6",
    "geo" : {
      "lat" : 37.9771899,
      "lng" : 23.7727101
    },
    "soundscapeQuality" : 4,
    "tags" : [ "music" ]
  },
  "-K3jcEAql_FVp8_JOvR8" : {
    "annotator" : {
      "age" : "2",
      "country" : "Greece",
      "education" : "3"
    },
    "csvFile" : "2015-11-22T14-35-08.121ZGPS37.993_23.766.csv",
    "deviceId" : "4f091a29106691a7",
    "geo" : {
      "lat" : 37.9927719,
      "lng" : 23.766413
    },
    "soundscapeQuality" : 3,
    "tags" : [ "subway/trains" ]
  },
  "-K3jgIYKAuB9Wvfej-Bm" : {
    "annotator" : {
      "age" : "2",
      "country" : "Greece",
      "education" : "3"
    },
    "csvFile" : "2015-11-22T14-54-25.032ZGPS37.977_23.773.csv",
    "deviceId" : "20a80da5890bbeb6",
    "geo" : {
      "lat" : 37.9771899,
      "lng" : 23.7727101
    },
    "soundscapeQuality" : 4,
    "tags" : [ "voice (adults)", "music" ]
  },
  "-K3jmJKWWzMY1fY3N4Fv" : {
    "annotator" : {
      "age" : "2",
      "country" : "Greece",
      "education" : "3"
    },
    "csvFile" : "2015-11-22T15-20-55.865ZGPS37.977_23.773.csv",
    "deviceId" : "20a80da5890bbeb6",
    "geo" : {
      "lat" : 37.9771899,
      "lng" : 23.7727101
    },
    "soundscapeQuality" : 4,
    "tags" : [ "voice (adults)", "music" ]
  },
  "-K3jmVv-wX-TzLPpSdoD" : {
    "annotator" : {
      "age" : "2",
      "country" : "Greece",
      "education" : "3"
    },
    "csvFile" : "2015-11-22T15-21-47.852ZGPS37.977_23.773.csv",
    "deviceId" : "20a80da5890bbeb6",
    "geo" : {
      "lat" : 37.9771899,
      "lng" : 23.7727101
    },
    "soundscapeQuality" : 4,
    "tags" : [ "voice (adults)", "music" ]
  },
  "-K3tjXPkkaRHsNgezlzF" : {
    "annotator" : {
      "age" : "2",
      "country" : "Greece",
      "education" : "3"
    },
    "csvFile" : "2015-11-24T13-44-29.920ZGPS38.009_23.807.csv",
    "deviceId" : "20a80da5890bbeb6",
    "geo" : {
      "lat" : 38.0088074,
      "lng" : 23.8073838
    },
    "soundscapeQuality" : 3,
    "tags" : [ "subway/trains", "music" ]
  },
  "-K3tk_a9Xz9tlhuaRQTC" : {
    "annotator" : {
      "age" : "2",
      "country" : "Greece",
      "education" : "3"
    },
    "csvFile" : "2015-11-24T13-49-16.498ZGPS38.001_23.816.csv",
    "deviceId" : "20a80da5890bbeb6",
    "geo" : {
      "lat" : 38.0012535,
      "lng" : 23.8163559
    },
    "soundscapeQuality" : 2,
    "tags" : [ "subway/trains" ]
  },
  "-K3tlKUJ5r1SH9SmxNiM" : {
    "annotator" : {
      "age" : "2",
      "country" : "Greece",
      "education" : "3"
    },
    "csvFile" : "2015-11-24T13-52-40.557ZGPS38.001_23.816.csv",
    "deviceId" : "20a80da5890bbeb6",
    "geo" : {
      "lat" : 38.0012535,
      "lng" : 23.8163559
    },
    "soundscapeQuality" : 2,
    "tags" : [ "subway/trains" ]
  },
  "-K3tlhCBURhOhCbB5NKp" : {
    "annotator" : {
      "age" : "2",
      "country" : "Greece",
      "education" : "3"
    },
    "csvFile" : "2015-11-24T13-54-02.580ZGPS38.001_23.816.csv",
    "deviceId" : "20a80da5890bbeb6",
    "geo" : {
      "lat" : 38.0012535,
      "lng" : 23.8163559
    },
    "soundscapeQuality" : 2,
    "tags" : [ "subway/trains" ]
  },
  "-K3tlyZtXSMc1zxeOYvS" : {
    "annotator" : {
      "age" : "2",
      "country" : "Greece",
      "education" : "3"
    },
    "csvFile" : "2015-11-24T13-55-33.008ZGPS37.977_23.750.csv",
    "deviceId" : "20a80da5890bbeb6",
    "geo" : {
      "lat" : 37.9771099,
      "lng" : 23.7502581
    },
    "soundscapeQuality" : 2,
    "tags" : [ "subway/trains", "voice (adults)" ]
  },
  "-K3tnUWqxZUh1pE1cPbM" : {
    "annotator" : {
      "age" : "2",
      "country" : "Greece",
      "education" : "3"
    },
    "csvFile" : "2015-11-24T14-02-11.327ZGPS37.976_23.747.csv",
    "deviceId" : "20a80da5890bbeb6",
    "geo" : {
      "lat" : 37.9760352,
      "lng" : 23.7467367
    },
    "soundscapeQuality" : 2,
    "tags" : [ "vehicles" ]
  },
  "-K3tngyMXh9044_zABad" : {
    "annotator" : {
      "age" : "2",
      "country" : "Greece",
      "education" : "3"
    },
    "csvFile" : "2015-11-24T14-03-02.435ZGPS37.976_23.747.csv",
    "deviceId" : "20a80da5890bbeb6",
    "geo" : {
      "lat" : 37.9760352,
      "lng" : 23.7467367
    },
    "soundscapeQuality" : 2,
    "tags" : [ "vehicles", "voice (adults)" ]
  },
  "-K4oYwyI6juVZNEWDKxd" : {
    "annotator" : {
      "age" : "2",
      "country" : "Greece",
      "education" : "3"
    },
    "csvFile" : "2015-12-05T23-51-54.555ZGPS37.976_23.712.csv",
    "deviceId" : "20a80da5890bbeb6",
    "geo" : {
      "lat" : 37.9764824,
      "lng" : 23.7121824
    },
    "soundscapeQuality" : 3,
    "tags" : [ "voice (adults)", "music" ]
  },
  "-K4oZD_cIG5FmvR5Q_DA" : {
    "annotator" : {
      "age" : "2",
      "country" : "Greece",
      "education" : "3"
    },
    "csvFile" : "2015-12-05T23-52-58.783ZGPS37.976_23.712.csv",
    "deviceId" : "20a80da5890bbeb6",
    "geo" : {
      "lat" : 37.9764824,
      "lng" : 23.7121824
    },
    "soundscapeQuality" : 3,
    "tags" : [ "voice (adults)", "music" ]
  },
  "-K5FPS_hraK1vqvIRJba" : {
    "annotator" : {
      "age" : "2",
      "country" : "Greece",
      "education" : "3"
    },
    "csvFile" : "2015-12-11T09-39-38.069ZGPS37.979_23.753.csv",
    "deviceId" : "20a80da5890bbeb6",
    "geo" : {
      "lat" : 37.9786709,
      "lng" : 23.7525314
    },
    "soundscapeQuality" : 2,
    "tags" : [ "subway/trains" ]
  },
  "-K5FPjONpvbk18ilb3Wd" : {
    "annotator" : {
      "age" : "2",
      "country" : "Greece",
      "education" : "3"
    },
    "csvFile" : "2015-12-11T09-40-38.661ZGPS37.979_23.753.csv",
    "deviceId" : "20a80da5890bbeb6",
    "geo" : {
      "lat" : 37.9786709,
      "lng" : 23.7525314
    },
    "soundscapeQuality" : 2,
    "tags" : [ "subway/trains", "voice (adults)" ]
  },
  "-K5FQ3v2rlg2bKEjNHeF" : {
    "annotator" : {
      "age" : "2",
      "country" : "Greece",
      "education" : "3"
    },
    "csvFile" : "2015-12-11T09-42-08.725ZGPS37.979_23.753.csv",
    "deviceId" : "20a80da5890bbeb6",
    "geo" : {
      "lat" : 37.9786709,
      "lng" : 23.7525314
    },
    "soundscapeQuality" : 2,
    "tags" : [ "subway/trains", "voice (adults)" ]
  },
  "-K5FQQvoAHK4Qrgx_PiM" : {
    "annotator" : {
      "age" : "2",
      "country" : "Greece",
      "education" : "3"
    },
    "csvFile" : "2015-12-11T09-43-31.572ZGPS37.979_23.753.csv",
    "deviceId" : "20a80da5890bbeb6",
    "geo" : {
      "lat" : 37.9786709,
      "lng" : 23.7525314
    },
    "soundscapeQuality" : 3,
    "tags" : [ "subway/trains", "voice (adults)" ]
  },
  "-K5FQcsY9P3rpPQwuyll" : {
    "annotator" : {
      "age" : "2",
      "country" : "Greece",
      "education" : "3"
    },
    "csvFile" : "2015-12-11T09-44-53.153ZGPS37.979_23.753.csv",
    "deviceId" : "20a80da5890bbeb6",
    "geo" : {
      "lat" : 37.9786709,
      "lng" : 23.7525314
    },
    "soundscapeQuality" : 2,
    "tags" : [ "subway/trains", "voice (adults)" ]
  },
  "-K5FyYdp_FS1Sbw-vYHb" : {
    "annotator" : {
      "age" : "2",
      "country" : "Greece",
      "education" : "3"
    },
    "csvFile" : "2015-12-11T12-17-22.414ZGPS38.010_23.807.csv",
    "deviceId" : "20a80da5890bbeb6",
    "geo" : {
      "lat" : 38.0100901,
      "lng" : 23.8065706
    },
    "soundscapeQuality" : 2,
    "tags" : [ "subway/trains" ]
  },
  "-K5G8yBuWDF3TOVx0yZU" : {
    "annotator" : {
      "age" : "2",
      "country" : "Greece",
      "education" : "3"
    },
    "csvFile" : "2015-12-11T13-07-18.711ZGPS37.981_23.734.csv",
    "deviceId" : "20a80da5890bbeb6",
    "geo" : {
      "lat" : 37.9806742,
      "lng" : 23.7340899
    },
    "soundscapeQuality" : 2,
    "tags" : [ "subway/trains" ]
  },
  "-K5GIchubnKUrNMe_gD6" : {
    "annotator" : {
      "age" : "2",
      "country" : "Greece",
      "education" : "3"
    },
    "csvFile" : "2015-12-11T13-49-32.893ZGPS37.963_23.725.csv",
    "deviceId" : "20a80da5890bbeb6",
    "geo" : {
      "lat" : 37.9630384,
      "lng" : 23.7247442
    },
    "soundscapeQuality" : 3,
    "tags" : [ "vehicles", "voice (adults)", "music" ]
  },
  "-K5GJ5Q_XfifjlwQfWWq" : {
    "annotator" : {
      "age" : "2",
      "country" : "Greece",
      "education" : "3"
    },
    "csvFile" : "2015-12-11T13-51-00.473ZGPS37.963_23.725.csv",
    "deviceId" : "20a80da5890bbeb6",
    "geo" : {
      "lat" : 37.9630384,
      "lng" : 23.7247442
    },
    "soundscapeQuality" : 3,
    "tags" : [ "vehicles", "voice (adults)", "music" ]
  },
  "-K5GQRcfYNP6CK0Jl4UZ" : {
    "annotator" : {
      "age" : "2",
      "country" : "Greece",
      "education" : "3"
    },
    "csvFile" : "2015-12-11T14-23-31.020ZGPS37.963_23.725.csv",
    "deviceId" : "20a80da5890bbeb6",
    "geo" : {
      "lat" : 37.9629953,
      "lng" : 23.7246992
    },
    "soundscapeQuality" : 2,
    "tags" : [ "vehicles", "voice (adults)", "music" ]
  },
  "-K5GQf_6DsXMbv4UJogh" : {
    "annotator" : {
      "age" : "2",
      "country" : "Greece",
      "education" : "3"
    },
    "csvFile" : "2015-12-11T14-24-33.315ZGPS37.963_23.725.csv",
    "deviceId" : "20a80da5890bbeb6",
    "geo" : {
      "lat" : 37.9629953,
      "lng" : 23.7246992
    },
    "soundscapeQuality" : 2,
    "tags" : [ "vehicles", "sirens/horns", "voice (adults)", "music" ]
  },
  "-K5_r5no1HbDrXUZ1LRx" : {
    "annotator" : {
      "age" : "2",
      "country" : "Greece",
      "education" : "3"
    },
    "csvFile" : "2015-12-15T13-37-00.885ZGPS37.977_23.781.csv",
    "deviceId" : "20a80da5890bbeb6",
    "geo" : {
      "lat" : 37.9774506,
      "lng" : 23.7808326
    },
    "soundscapeQuality" : 3,
    "tags" : [ "walking" ]
  },
  "-K5_rVVCoPn8SCo8BM-6" : {
    "annotator" : {
      "age" : "2",
      "country" : "Greece",
      "education" : "3"
    },
    "csvFile" : "2015-12-15T13-38-30.726ZGPS37.977_23.781.csv",
    "deviceId" : "20a80da5890bbeb6",
    "geo" : {
      "lat" : 37.9774529,
      "lng" : 23.7808377
    },
    "soundscapeQuality" : 2,
    "tags" : [ "machinery", "wind" ]
  }
}
